…
problem 2
---------

The goal is to do some exploration of this dataset. To that end, write a short description of the dataset, noting the size and structure of the data, describing some key variables, and giving illstrative examples of observations.

``` r
data("instacart")

instacart %>%
  group_by(order_id) %>%
summarize(n = n())
```

    ## # A tibble: 131,209 x 2
    ##    order_id     n
    ##       <int> <int>
    ##  1        1     8
    ##  2       36     8
    ##  3       38     9
    ##  4       96     7
    ##  5       98    49
    ##  6      112    11
    ##  7      170    17
    ##  8      218     5
    ##  9      226    13
    ## 10      349    11
    ## # ... with 131,199 more rows

``` r
instacart %>%
  group_by(product_id) %>%
summarize(n = n())
```

    ## # A tibble: 39,123 x 2
    ##    product_id     n
    ##         <int> <int>
    ##  1          1    76
    ##  2          2     4
    ##  3          3     6
    ##  4          4    22
    ##  5          5     1
    ##  6          7     1
    ##  7          8    13
    ##  8          9     5
    ##  9         10   119
    ## 10         11     2
    ## # ... with 39,113 more rows

``` r
instacart %>% 
  group_by(order_id) %>% 
  summarize( n_product = n_distinct(product_id))
```

    ## # A tibble: 131,209 x 2
    ##    order_id n_product
    ##       <int>     <int>
    ##  1        1         8
    ##  2       36         8
    ##  3       38         9
    ##  4       96         7
    ##  5       98        49
    ##  6      112        11
    ##  7      170        17
    ##  8      218         5
    ##  9      226        13
    ## 10      349        11
    ## # ... with 131,199 more rows

``` r
instacart %>%
  group_by(user_id) %>%
summarize(n = n())
```

    ## # A tibble: 131,209 x 2
    ##    user_id     n
    ##      <int> <int>
    ##  1       1    11
    ##  2       2    31
    ##  3       5     9
    ##  4       7     9
    ##  5       8    18
    ##  6       9    22
    ##  7      10     4
    ##  8      13     5
    ##  9      14    11
    ## 10      17     6
    ## # ... with 131,199 more rows
…
This user with the id:112108 booked an order with the id :1 at 10am on Thursday. This product is Bulgarian Yogurt. Bulgarian Yogurt has been ordered by this user in the past and this is his 4th time order this. Bulgarian Yogurt has aisle id :120, department id: 16. It belongs to yogurt aisle and dairy eggs department.

#### do or answer the following (commenting on the results of each):

How many aisles are there, and which aisles are the most items ordered from?

``` r
instacart %>%
  group_by(aisle) %>%
summarize(n = n()) %>%
arrange(desc(n))
```

    ## # A tibble: 134 x 2
    ##    aisle                              n
    ##    <chr>                          <int>
    ##  1 fresh vegetables              150609
    ##  2 fresh fruits                  150473
    ##  3 packaged vegetables fruits     78493
    ##  4 yogurt                         55240
    ##  5 packaged cheese                41699
    ##  6 water seltzer sparkling water  36617
    ##  7 milk                           32644
    ##  8 chips pretzels                 31269
    ##  9 soy lactosefree                26240
    ## 10 bread                          23635
    ## # ... with 124 more rows
…
problem 3
---------

The goal is to do some exploration of this dataset. To that end, write a short description of the dataset, noting the size and structure of the data, describing some key variables, and indicating the extent to which missing data is an issue.

``` r
data("ny_noaa")

ny_noaa %>%
  group_by(id) %>%
summarize(n = n())
```

    ## # A tibble: 747 x 2
    ##    id              n
    ##    <chr>       <int>
    ##  1 US1NYAB0001  1157
    ##  2 US1NYAB0006   852
    ##  3 US1NYAB0010   822
    ##  4 US1NYAB0016   214
    ##  5 US1NYAB0017   459
    ##  6 US1NYAB0021   365
    ##  7 US1NYAB0022   273
    ##  8 US1NYAB0023   365
    ##  9 US1NYAB0025   215
    ## 10 US1NYAL0002   549
    ## # ... with 737 more rows

``` r
ny_noaa %>%
  group_by(date) %>%
summarize(n = n())
```

    ## # A tibble: 10,957 x 2
    ##    date           n
    ##    <date>     <int>
    ##  1 1981-01-01   236
    ##  2 1981-01-02   236
    ##  3 1981-01-03   236
    ##  4 1981-01-04   236
    ##  5 1981-01-05   236
    ##  6 1981-01-06   236
    ##  7 1981-01-07   236
    ##  8 1981-01-08   236
    ##  9 1981-01-09   236
    ## 10 1981-01-10   236
    ## # ... with 10,947 more rows

``` r
ny_noaa %>%
  group_by(id, date) %>%
summarize(mean_depth = mean(snwd),
          mean_prcp = mean (prcp))
```

    ## # A tibble: 2,595,176 x 4
    ## # Groups:   id [?]
    ##    id          date       mean_depth mean_prcp
    ##    <chr>       <date>          <dbl>     <dbl>
    ##  1 US1NYAB0001 2007-11-01         NA        NA
    ##  2 US1NYAB0001 2007-11-02         NA        NA
    ##  3 US1NYAB0001 2007-11-03         NA        NA
    ##  4 US1NYAB0001 2007-11-04         NA        NA
    ##  5 US1NYAB0001 2007-11-05         NA        NA
    ##  6 US1NYAB0001 2007-11-06         NA        NA
    ##  7 US1NYAB0001 2007-11-07         NA        NA
    ##  8 US1NYAB0001 2007-11-08         NA        NA
    ##  9 US1NYAB0001 2007-11-09         NA        NA
    ## 10 US1NYAB0001 2007-11-10         NA        NA
    ## # ... with 2,595,166 more rows
…
Do some data cleaning. Create separate variables for year, month, and day. Ensure observations for temperature, precipitation, and snowfall are given in reasonable units. For snowfall, what are the most commonly observed values? Why?

``` r
clean_ny_noaa = ny_noaa %>% 
  janitor::clean_names() %>% 
  separate(date, into = c("year", "month", "day"), sep = "-") %>% 
  mutate(prcp = prcp / 10, tmax = as.numeric(tmax) / 10, tmin = as.numeric(tmin) / 10)

clean_ny_noaa %>% 
  group_by(snow) %>% 
  summarize(n = n()) %>% 
  arrange(desc(n))
```

    ## # A tibble: 282 x 2
    ##     snow       n
    ##    <int>   <int>
    ##  1     0 2008508
    ##  2    NA  381221
    ##  3    25   31022
    ##  4    13   23095
    ##  5    51   18274
    ##  6    76   10173
    ##  7     8    9962
    ##  8     5    9748
    ##  9    38    9197
    ## 10     3    8790
    ## # ... with 272 more rows
…
